%YAML 1.1
%TAG !u! tag:unity3d.com,2011:
--- !u!1 &3244353854345831185
GameObject:
  m_ObjectHideFlags: 0
  m_CorrespondingSourceObject: {fileID: 0}
  m_PrefabInstance: {fileID: 0}
  m_PrefabAsset: {fileID: 0}
  serializedVersion: 6
  m_Component:
  - component: {fileID: 7735447159120438348}
  - component: {fileID: 2135222784055330305}
  m_Layer: 0
  m_Name: Bonus
  m_TagString: Untagged
  m_Icon: {fileID: 0}
  m_NavMeshLayer: 0
  m_StaticEditorFlags: 0
  m_IsActive: 1
--- !u!4 &7735447159120438348
Transform:
  m_ObjectHideFlags: 0
  m_CorrespondingSourceObject: {fileID: 0}
  m_PrefabInstance: {fileID: 0}
  m_PrefabAsset: {fileID: 0}
  m_GameObject: {fileID: 3244353854345831185}
  m_LocalRotation: {x: 0, y: 0, z: 0, w: 1}
  m_LocalPosition: {x: 0, y: 0, z: 0}
  m_LocalScale: {x: 0, y: 0, z: 0}
  m_Children: []
  m_Father: {fileID: 0}
  m_RootOrder: 0
  m_LocalEulerAnglesHint: {x: 0, y: 0, z: 0}
--- !u!114 &2135222784055330305
MonoBehaviour:
  m_ObjectHideFlags: 0
  m_CorrespondingSourceObject: {fileID: 0}
  m_PrefabInstance: {fileID: 0}
  m_PrefabAsset: {fileID: 0}
  m_GameObject: {fileID: 3244353854345831185}
  m_Enabled: 1
  m_EditorHideFlags: 0
  m_Script: {fileID: 11500000, guid: acc2ad4c86e9c4742a6059c7b78ff9bc, type: 3}
  m_Name: 
  m_EditorClassIdentifier: 
  UnityChan: {fileID: 0}
  hidden_bpanel: {fileID: 1886099571325807124, guid: b842b7eb76d79c748a886e387906a71e,
    type: 3}
  hidden_godes: {fileID: 5304418327114372355, guid: f5720a0d0a12fdd4d95ac30f8fff3628,
    type: 3}
  hidden_coke: {fileID: 5015694278869409709, guid: 7ebdf5bd958286e44aae3c690534568f,
    type: 3}
  hidden_rokuhachi: {fileID: 7415629101569850695, guid: 02816f62f5f16454bbcb39a7fcc34ac6,
    type: 3}
  hidden_nakagi: {fileID: 915778028732947000, guid: 21b62d009f7672241801351fd4196f74,
    type: 3}
  hidden_oyaji: {fileID: 6535138248795223900, guid: aec2a13e093d52f4aaf7b81e8eb9a0a4,
    type: 3}
  Canvas: {fileID: 0}
  Score: {fileID: 0}
