%YAML 1.1
%TAG !u! tag:unity3d.com,2011:
--- !u!78 &1
TagManager:
  serializedVersion: 2
  tags:
  - Bombs
  - Fire
  - Block
  - Stage
  - Balloon
  - Enemylose
  - Hblocks
  - Hblock
  - Item
  - New tag
  - Item_b
  - Item_f
  - Item_fm
  - Item_sp
  - Item_Wpass
  - Item_bpass
  - B_b
  - B_c
  - B_g
  - B_m
  - B_n
  - B_o
  - B_68
  - chondrion
  - onion
  - tiger
  - barrel
  - monster
  - poverty
  - pontan
  - Item_br
  - Item_wpass
  - Item_pm
  - D_close
  - D_open
  - Block_Par
  - Balloon_Su
  - Onion_Su
  - Tiger_Su
  - Barrel_Su
  - Poverty_Su
  - Chondrion_Su
  - Monster_Su
  - Pontan_Su
  - Fire_Su
  - Bomb_Su
  - Speed_C
  - Remote_C
  - BombP_C
  - WallP_C
  - FireM_C
  - Mysterious_C
  - BlockMapPar
  - Config1
  - CanvasT
  - ScoreT
  - up_b
  - dw_b
  - lt_b
  - rt_b
  - Left
  - b_b
  - r_b
  - Dodai
  - Endtext
  layers:
  - Default
  - TransparentFX
  - Ignore Raycast
  - 
  - Water
  - UI
  - 
  - 
  - PostProcessing
  - Blocks
  - chondrion
  - enemy2
  - pontan
  - 
  - monsters
  - monster
  - 
  - bomb
  - fire
  - 
  - 
  - 
  - 
  - 
  - 
  - 
  - 
  - 
  - 
  - 
  - 
  - 
  m_SortingLayers:
  - name: Default
    uniqueID: 0
    locked: 0
